ARDECO R package
…
The function returns a tibble with the following columns:

code is the mandatory code requested by
the other ARDECO R package functions (ardeco_get_dataset_list,
ardeco_get_dataset_data, ardeco_get_tercet_list) to
retrieve information and data.

description explains the variable
represented by the variable code

Example:

mytb <- ardeco_get_variable_list()
print(mytb, max=50)
#> # A tibble: 68 × 2
#>    code   description                                                  
#>    <chr>  <chr>                                                        
#>  1 PVGD   GDP price index (implicit deflator, national, 2015=100, euro)
#>  2 PVGE   GVA price index (implicit deflator, national, 2015=100, euro)
#>  3 SNPCN  Total population change                                      
#>  4 SNMTN  Net migration                                                
#>  5 SNPBN  Live births                                                  
#>  6 SNPDN  Deaths                                                       
#>  7 SNPNN  Natural change of population                                 
#>  8 SUVGDP GDP per capita at current prices                             
#>  9 SNPTN  Population on 1st January by broad age group and sex         
#> 10 SNPTD  Average annual population                                    
#> # ℹ 58 more rows
…
varcode is the code of one of the
available variables exposed in ARDECO database

nutsversion is one of the versions
available for the requested variable

To check the available versions for the requested variable, use:

ardeco_get_dataset_list(‘varcode’) (see ‘List of the available datasets’)

Example:

# Check the available versions for variable SNPTD
ardeco_get_dataset_list('SNPTD')
#> # A tibble: 1 × 3
#>   var   unit    vers            
#>   <chr> <chr>   <chr>           
#> 1 SNPTD Persons 2016, 2021, 2024

mydf <- ardeco_get_dataset_data('SNPTD', version=2021)
print(mydf, max=50)
#>   VARIABLE VERSIONS LEVEL NUTSCODE YEAR    UNIT   VALUE
#> 1    SNPTD     2021     0       AL 1960 Persons 1608801
#> 2    SNPTD     2021     0       AT 1960 Persons 7047440
#> 3    SNPTD     2021     0       BE 1960 Persons 9153499
#> 4    SNPTD     2021     0       BG 1960 Persons 7867374
#> 5    SNPTD     2021     0       CH 1960 Persons 5328000
#> 6    SNPTD     2021     0       CY 1960 Persons  441788
#> 7    SNPTD     2021     0       CZ 1960 Persons 9602011
#>  [ reached 'max' / getOption("max.print") -- omitted 157081 rows ]
…
unit is one of the unit of measures
available for the requested variable

To check the available unit of measures for the requested variable,
use:

ardeco_get_dataset_list(‘varcode’) (see ‘List of the available datasets’)

Example:

# Check the available units for variable SUVGD
ardeco_get_dataset_list('SUVGD')
#> # A tibble: 2 × 3
#>   var   unit        vers            
#>   <chr> <chr>       <chr>           
#> 1 SUVGD Million EUR 2016, 2021, 2024
#> 2 SUVGD Million PPS 2016, 2021, 2024

# Retrive data only for unit = 'Million PPS'
mydf <- ardeco_get_dataset_data('SUVGD', unit='Million PPS')
print(mydf, max=50)
#>   VARIABLE VERSIONS LEVEL NUTSCODE YEAR        UNIT    VALUE
#> 1    SUVGD     2016     0       AT 1980 Million PPS  63886.9
#> 2    SUVGD     2016     0       BE 1980 Million PPS  81472.1
#> 3    SUVGD     2016     0       DE 1980 Million PPS       NA
#> 4    SUVGD     2016     0       DK 1980 Million PPS  40713.8
#> 5    SUVGD     2016     0       EL 1980 Million PPS  67653.8
#> 6    SUVGD     2016     0       ES 1980 Million PPS 212593.0
#> 7    SUVGD     2016     0       FI 1980 Million PPS  35398.8
#>  [ reached 'max' / getOption("max.print") -- omitted 176726 rows ]
…
dim-value-x: of the possible values for
the selected dimension

To check the existance of additional dimensions for the requested
variable, use:

ardeco_get_dataset_list(‘varcode’) (see ‘List of the available datasets’)

Example:

# Check the available dimensions for variable SNPTN
ardeco_get_dataset_list('SNPTN')
#> # A tibble: 12 × 5
#>    var   sex     age                 unit    vers            
#>    <chr> <chr>   <chr>               <chr>   <chr>           
#>  1 SNPTN Females 65 years and over   Persons 2016, 2021, 2024
#>  2 SNPTN Males   65 years and over   Persons 2016, 2021, 2024
#>  3 SNPTN Total   65 years and over   Persons 2016, 2021, 2024
#>  4 SNPTN Females From 15 to 64 years Persons 2016, 2021, 2024
#>  5 SNPTN Males   From 15 to 64 years Persons 2016, 2021, 2024
#>  6 SNPTN Total   From 15 to 64 years Persons 2016, 2021, 2024
#>  7 SNPTN Females Less than 15 years  Persons 2016, 2021, 2024
#>  8 SNPTN Males   Less than 15 years  Persons 2016, 2021, 2024
#>  9 SNPTN Total   Less than 15 years  Persons 2016, 2021, 2024
#> 10 SNPTN Females Total               Persons 2016, 2021, 2024
#> 11 SNPTN Males   Total               Persons 2016, 2021, 2024
#> 12 SNPTN Total   Total               Persons 2016, 2021, 2024

# Retrive data only for sex = 'Males' and age = 'Total'
mydf <- ardeco_get_dataset_data('SNPTN', sex='Males', age = 'Total')
print(mydf, max=50)
#>   VARIABLE VERSIONS LEVEL NUTSCODE YEAR   SEX   AGE    UNIT   VALUE
#> 1    SNPTN     2021     0       AL 1960 Males Total Persons  804267
#> 2    SNPTN     2021     0       AT 1960 Males Total Persons 3357007
#> 3    SNPTN     2021     0       BE 1960 Males Total Persons 4448001
#> 4    SNPTN     2021     0       BG 1960 Males Total Persons 3815790
#> 5    SNPTN     2021     0       CH 1960 Males Total Persons 2553621
#>  [ reached 'max' / getOption("max.print") -- omitted 149511 rows ]
…
